^E:\SWOOSHALGS\SWOOSH\STDAFX.CPP
/c /IC:\OPENCV\BUILD\INCLUDE /IOPENCV/INCLUDE /ZI /nologo /W3 /WX- /diagnostics:classic /sdl /Od /D _DEBUG /D _CONSOLE /D _CRT_SECURE_NO_WARNINGS /D _MBCS /Gm- /EHsc /RTC1 /MDd /GS /fp:precise /Zc:wchar_t /Zc:forScope /Zc:inline /Yc"stdafx.h" /Fp"X64\DEBUG\OPENCVAPPLICATION.PCH" /Fo"X64\DEBUG\\" /Fd"X64\DEBUG\VC141.PDB" /Gd /TP /FC E:\SWOOSHALGS\SWOOSH\STDAFX.CPP
^E:\SWOOSHALGS\SWOOSH\BEZIER.CPP
/c /IC:\OPENCV\BUILD\INCLUDE /IOPENCV/INCLUDE /ZI /nologo /W3 /WX- /diagnostics:classic /sdl /Od /D _DEBUG /D _CONSOLE /D _CRT_SECURE_NO_WARNINGS /D _MBCS /Gm- /EHsc /RTC1 /MDd /GS /fp:precise /Zc:wchar_t /Zc:forScope /Zc:inline /Yu"stdafx.h" /Fp"X64\DEBUG\OPENCVAPPLICATION.PCH" /Fo"X64\DEBUG\\" /Fd"X64\DEBUG\VC141.PDB" /Gd /TP /FC E:\SWOOSHALGS\SWOOSH\BEZIER.CPP
^E:\SWOOSHALGS\SWOOSH\COMMON.CPP
/c /IC:\OPENCV\BUILD\INCLUDE /IOPENCV/INCLUDE /ZI /nologo /W3 /WX- /diagnostics:classic /sdl /Od /D _DEBUG /D _CONSOLE /D _CRT_SECURE_NO_WARNINGS /D _MBCS /Gm- /EHsc /RTC1 /MDd /GS /fp:precise /Zc:wchar_t /Zc:forScope /Zc:inline /Yu"stdafx.h" /Fp"X64\DEBUG\OPENCVAPPLICATION.PCH" /Fo"X64\DEBUG\\" /Fd"X64\DEBUG\VC141.PDB" /Gd /TP /FC E:\SWOOSHALGS\SWOOSH\COMMON.CPP
^E:\SWOOSHALGS\SWOOSH\LUMATRANSITION.CPP
/c /IC:\OPENCV\BUILD\INCLUDE /IOPENCV/INCLUDE /ZI /nologo /W3 /WX- /diagnostics:classic /sdl /Od /D _DEBUG /D _CONSOLE /D _CRT_SECURE_NO_WARNINGS /D _MBCS /Gm- /EHsc /RTC1 /MDd /GS /fp:precise /Zc:wchar_t /Zc:forScope /Zc:inline /Yu"stdafx.h" /Fp"X64\DEBUG\OPENCVAPPLICATION.PCH" /Fo"X64\DEBUG\\" /Fd"X64\DEBUG\VC141.PDB" /Gd /TP /FC E:\SWOOSHALGS\SWOOSH\LUMATRANSITION.CPP
^E:\SWOOSHALGS\SWOOSH\ROTATETRANSITION.CPP
/c /IC:\OPENCV\BUILD\INCLUDE /IOPENCV/INCLUDE /ZI /nologo /W3 /WX- /diagnostics:classic /sdl /Od /D _DEBUG /D _CONSOLE /D _CRT_SECURE_NO_WARNINGS /D _MBCS /Gm- /EHsc /RTC1 /MDd /GS /fp:precise /Zc:wchar_t /Zc:forScope /Zc:inline /Yu"stdafx.h" /Fp"X64\DEBUG\OPENCVAPPLICATION.PCH" /Fo"X64\DEBUG\\" /Fd"X64\DEBUG\VC141.PDB" /Gd /TP /FC E:\SWOOSHALGS\SWOOSH\ROTATETRANSITION.CPP
^E:\SWOOSHALGS\SWOOSH\ZOOMTRANSITION.CPP
/c /IC:\OPENCV\BUILD\INCLUDE /IOPENCV/INCLUDE /ZI /nologo /W3 /WX- /diagnostics:classic /sdl /Od /D _DEBUG /D _CONSOLE /D _CRT_SECURE_NO_WARNINGS /D _MBCS /Gm- /EHsc /RTC1 /MDd /GS /fp:precise /Zc:wchar_t /Zc:forScope /Zc:inline /Yu"stdafx.h" /Fp"X64\DEBUG\OPENCVAPPLICATION.PCH" /Fo"X64\DEBUG\\" /Fd"X64\DEBUG\VC141.PDB" /Gd /TP /FC E:\SWOOSHALGS\SWOOSH\ZOOMTRANSITION.CPP
^E:\SWOOSHALGS\SWOOSH\SWIPE.CPP
/c /IC:\OPENCV\BUILD\INCLUDE /IOPENCV/INCLUDE /ZI /nologo /W3 /WX- /diagnostics:classic /sdl /Od /D _DEBUG /D _CONSOLE /D _CRT_SECURE_NO_WARNINGS /D _MBCS /Gm- /EHsc /RTC1 /MDd /GS /fp:precise /Zc:wchar_t /Zc:forScope /Zc:inline /Yu"stdafx.h" /Fp"X64\DEBUG\OPENCVAPPLICATION.PCH" /Fo"X64\DEBUG\\" /Fd"X64\DEBUG\VC141.PDB" /Gd /TP /FC E:\SWOOSHALGS\SWOOSH\SWIPE.CPP
^E:\SWOOSHALGS\SWOOSH\OPENCVAPPLICATION.CPP
/c /IC:\OPENCV\BUILD\INCLUDE /IOPENCV/INCLUDE /ZI /nologo /W3 /WX- /diagnostics:classic /sdl /Od /D _DEBUG /D _CONSOLE /D _CRT_SECURE_NO_WARNINGS /D _MBCS /Gm- /EHsc /RTC1 /MDd /GS /fp:precise /Zc:wchar_t /Zc:forScope /Zc:inline /Yu"stdafx.h" /Fp"X64\DEBUG\OPENCVAPPLICATION.PCH" /Fo"X64\DEBUG\\" /Fd"X64\DEBUG\VC141.PDB" /Gd /TP /FC E:\SWOOSHALGS\SWOOSH\OPENCVAPPLICATION.CPP
^E:\SWOOSHALGS\SWOOSH\TIMEREMAPPING.CPP
/c /IC:\OPENCV\BUILD\INCLUDE /IOPENCV/INCLUDE /ZI /nologo /W3 /WX- /diagnostics:classic /sdl /Od /D _DEBUG /D _CONSOLE /D _CRT_SECURE_NO_WARNINGS /D _MBCS /Gm- /EHsc /RTC1 /MDd /GS /fp:precise /Zc:wchar_t /Zc:forScope /Zc:inline /Yu"stdafx.h" /Fp"X64\DEBUG\OPENCVAPPLICATION.PCH" /Fo"X64\DEBUG\\" /Fd"X64\DEBUG\VC141.PDB" /Gd /TP /FC E:\SWOOSHALGS\SWOOSH\TIMEREMAPPING.CPP
